<svg width="45" height="46" viewBox="0 0 45 46" version="1.1" xmlns="http://www.w3.org/2000/svg" xmlns:xlink="http://www.w3.org/1999/xlink">
<title>ico-message</title>
<desc>Created using Figma</desc>
<g id="Canvas" transform="translate(3581 -4501)">
<g id="ico-message">
<g id="Vector">
<use xlink:href="#path0_fill" transform="translate(-3581 4501)" fill="#0A51A7"/>
</g>
</g>
</g>
<defs>
<path id="path0_fill" d="M 14.7326 14.7024C 14.7326 14.3824 14.8614 14.0755 15.0908 13.8492C 15.3201 13.6229 15.6311 13.4957 15.9554 13.4957L 29.0446 13.4957C 29.3689 13.4957 29.6799 13.6229 29.9092 13.8492C 30.1386 14.0755 30.2674 14.3824 30.2674 14.7024C 30.2674 15.0225 30.1386 15.3294 29.9092 15.5557C 29.6799 15.782 29.3689 15.9092 29.0446 15.9092L 15.9554 15.9092C 15.6311 15.9092 15.3201 15.782 15.0908 15.5557C 14.8614 15.3294 14.7326 15.0225 14.7326 14.7024ZM 15.9554 20.765L 29.0446 20.765C 29.3689 20.765 29.6799 20.6379 29.9092 20.4116C 30.1386 20.1853 30.2674 19.8783 30.2674 19.5583C 30.2674 19.2383 30.1386 18.9313 29.9092 18.705C 29.6799 18.4787 29.3689 18.3516 29.0446 18.3516L 15.9554 18.3516C 15.6311 18.3516 15.3201 18.4787 15.0908 18.705C 14.8614 18.9313 14.7326 19.2383 14.7326 19.5583C 14.7326 19.8783 14.8614 20.1853 15.0908 20.4116C 15.3201 20.6379 15.6311 20.765 15.9554 20.765ZM 26.1342 24.419C 26.1342 24.0989 26.0054 23.792 25.7761 23.5657C 25.5468 23.3394 25.2357 23.2123 24.9114 23.2123L 15.9554 23.2123C 15.6311 23.2123 15.3201 23.3394 15.0908 23.5657C 14.8614 23.792 14.7326 24.0989 14.7326 24.419C 14.7326 24.739 14.8614 25.046 15.0908 25.2723C 15.3201 25.4986 15.6311 25.6257 15.9554 25.6257L 24.9163 25.6257C 25.2406 25.6257 25.5516 25.4986 25.781 25.2723C 26.0103 25.046 26.1391 24.739 26.1391 24.419L 26.1342 24.419ZM 21.7076 0.28453L 16.8163 4.37773C 16.5685 4.58448 16.4141 4.87989 16.3871 5.19898C 16.36 5.51807 16.4625 5.8347 16.672 6.07921C 16.8815 6.32372 17.1809 6.47609 17.5042 6.50279C 17.8276 6.5295 18.1484 6.42835 18.3962 6.2216L 22.5 2.79451L 26.6185 6.22643C 26.7412 6.3288 26.8831 6.40632 27.0361 6.45457C 27.1892 6.50282 27.3503 6.52084 27.5105 6.50762C 27.6706 6.4944 27.8265 6.45019 27.9692 6.37751C 28.112 6.30483 28.2389 6.20511 28.3427 6.08404C 28.4464 5.96297 28.525 5.82292 28.5738 5.67189C 28.6227 5.52086 28.641 5.3618 28.6276 5.20381C 28.6142 5.04581 28.5694 4.89196 28.4958 4.75105C 28.4221 4.61015 28.3211 4.48493 28.1984 4.38256L 23.3071 0.289357C 23.0846 0.101782 22.8014 -0.000879921 22.5089 5.72283e-06C 22.2163 0.000891367 21.9337 0.105266 21.7125 0.294184L 21.7076 0.28453ZM 44.5647 18.0233C 44.7009 18.1365 44.8104 18.2776 44.8856 18.4368C 44.9608 18.5961 44.9998 18.7696 45 18.9453L 45 41.7427C 44.9987 42.8714 44.5438 43.9535 43.735 44.7516C 42.9262 45.5498 41.8297 45.9987 40.6859 46L 4.31413 46C 3.17035 45.9987 2.07379 45.5498 1.26501 44.7516C 0.456233 43.9535 0.0012946 42.8714 2.17218e-16 41.7427L 2.17218e-16 18.9453C 0.00018264 18.7696 0.0392336 18.5961 0.114425 18.4368C 0.189616 18.2776 0.299133 18.1365 0.435326 18.0233L 5.04293 14.2101C 5.16562 14.1077 5.30754 14.0302 5.46058 13.982C 5.61363 13.9337 5.77481 13.9157 5.93491 13.9289C 6.09502 13.9421 6.25092 13.9863 6.39371 14.059C 6.5365 14.1317 6.66338 14.2314 6.76712 14.3525C 6.87086 14.4736 6.94941 14.6136 6.9983 14.7646C 7.04719 14.9157 7.06546 15.0747 7.05206 15.2327C 7.03866 15.3907 6.99386 15.5446 6.92021 15.6855C 6.84656 15.8264 6.74551 15.9516 6.62283 16.054L 3.19891 18.8922L 8.4913 22.5848L 8.4913 11.0002C 8.4913 10.1796 8.82163 9.39266 9.40962 8.81241C 9.99761 8.23217 10.7951 7.90619 11.6266 7.90619L 33.388 7.90619C 34.2196 7.90619 35.0171 8.23217 35.6051 8.81241C 36.193 9.39266 36.5234 10.1796 36.5234 11.0002L 36.5234 22.5848L 41.8207 18.8874L 38.4261 16.0588C 38.1783 15.8521 38.0239 15.5566 37.9968 15.2376C 37.9698 14.9185 38.0723 14.6018 38.2818 14.3573C 38.4913 14.1128 38.7907 13.9604 39.114 13.9337C 39.4373 13.907 39.7582 14.0082 40.006 14.2149L 44.5647 18.0233ZM 10.9223 24.2983L 22.5 32.3785L 34.0777 24.2983L 34.0777 11.0195C 34.0777 10.839 34.0051 10.6659 33.8757 10.5383C 33.7464 10.4106 33.571 10.3389 33.388 10.3389L 11.612 10.3389C 11.429 10.3389 11.2536 10.4106 11.1243 10.5383C 10.9949 10.6659 10.9223 10.839 10.9223 11.0195L 10.9223 24.2983ZM 42.5543 21.3346L 28.7364 30.9884L 38.6413 38.4507C 38.9008 38.6428 39.0723 38.9286 39.1181 39.2455C 39.164 39.5623 39.0805 39.8841 38.8859 40.1402C 38.6913 40.3962 38.4016 40.5655 38.0805 40.6107C 37.7595 40.656 37.4334 40.5735 37.1739 40.3815L 26.6429 32.4413L 23.219 34.8547C 23.0124 34.9991 22.7654 35.0767 22.5122 35.0767C 22.259 35.0767 22.0121 34.9991 21.8054 34.8547L 18.3815 32.4413L 7.85543 40.3815C 7.59598 40.5735 7.26986 40.656 6.94881 40.6107C 6.62775 40.5655 6.33807 40.3962 6.14348 40.1402C 5.94889 39.8841 5.86534 39.5623 5.9112 39.2455C 5.95707 38.9286 6.12859 38.6428 6.38804 38.4507L 16.2636 30.9787L 2.44565 21.3346L 2.44565 41.7427C 2.44694 42.2313 2.64421 42.6996 2.99434 43.0451C 3.34447 43.3906 3.81898 43.5853 4.31413 43.5866L 40.6859 43.5866C 41.181 43.5853 41.6555 43.3906 42.0057 43.0451C 42.3558 42.6996 42.5531 42.2313 42.5543 41.7427L 42.5543 21.3346Z"/>
</defs>
</svg>
